                                                                
The question of exercise!!!: Given the algebraic equation y = a(x in cube) + 7, which of the following, if any, are correct C++ statements for this equation?

a) у = а * х * х * х + 7;
b) у = а * х * х * (х + 7);
c) у = ( а * х ) * х * ( х + 7 ) ;
d) у = ( а * х ) * х * х + 7;
e) у = а * ( х * х * х ) + 7 ;
f) У = а * х * ( х * х + 7 ) ; 

answer!!!
a), d), e) 
